<svg version="1.1" xmlns="http://www.w3.org/2000/svg" viewBox="0 0 198 131" width="198" height="131">
  <!-- svg-source:excalidraw -->
  
  <defs>
    <style class="style-fonts">
      @font-face {
        font-family: "Virgil";
        src: url("https://excalidraw.com/Virgil.woff2");
      }
      @font-face {
        font-family: "Cascadia";
        src: url("https://excalidraw.com/Cascadia.woff2");
      }
      @font-face {
        font-family: "Assistant";
        src: url("https://excalidraw.com/Assistant-Regular.woff2");
      }
    </style>
    
  </defs>
  <rect x="0" y="0" width="198" height="131" fill="#ffffff"></rect><g stroke-linecap="round" transform="translate(10 10) rotate(0 89 15)"><path d="M0.39 4.31 C0.39 4.31, 0.39 4.31, 0.39 4.31 M0.39 4.31 C0.39 4.31, 0.39 4.31, 0.39 4.31 M-0.14 17.11 C3.67 12.72, 10.06 8.17, 14.3 0.5 M-0.14 17.11 C5.34 10.85, 11.26 4.57, 14.3 0.5 M1.97 26.88 C9.94 17.54, 17.64 7.91, 24.93 0.47 M1.97 26.88 C9.21 18.87, 14.9 12.65, 24.93 0.47 M9.32 30.62 C20.42 17.7, 29.93 6.93, 35.56 0.43 M9.32 30.62 C17 22.45, 23.9 14.03, 35.56 0.43 M19.95 30.59 C29.74 18.1, 39.72 9.38, 46.19 0.4 M19.95 30.59 C26.31 21.43, 33.8 13.81, 46.19 0.4 M30.58 30.55 C39.55 20.79, 46.37 14.15, 56.82 0.37 M30.58 30.55 C40.99 19.47, 50.14 7.67, 56.82 0.37 M41.21 30.52 C47.13 23.47, 53.81 15.37, 67.45 0.33 M41.21 30.52 C50.78 19.15, 61.17 6.71, 67.45 0.33 M51.84 30.49 C61.54 19.54, 72.05 5.23, 78.08 0.3 M51.84 30.49 C56.81 23.77, 61.55 18.36, 78.08 0.3 M62.47 30.45 C70.9 20.05, 78.25 13.22, 88.71 0.26 M62.47 30.45 C72.2 20.83, 80.41 9.15, 88.71 0.26 M73.1 30.42 C82.02 20.16, 90.4 8.42, 99.34 0.23 M73.1 30.42 C78.93 22.06, 85.86 15.37, 99.34 0.23 M83.73 30.38 C90.71 20.27, 99.69 12.1, 109.97 0.19 M83.73 30.38 C89.55 22.58, 96.02 15.25, 109.97 0.19 M94.36 30.35 C104.69 20.44, 115.7 6.1, 120.6 0.16 M94.36 30.35 C103.44 20.88, 113.52 9.47, 120.6 0.16 M104.99 30.31 C109.95 22.04, 117.33 13.77, 131.23 0.12 M104.99 30.31 C110.67 24.77, 116.15 18.48, 131.23 0.12 M115.62 30.28 C126.98 19.1, 133.83 9.35, 141.86 0.09 M115.62 30.28 C123.1 20.08, 133.14 11.3, 141.86 0.09 M126.25 30.24 C132.41 22.58, 139.23 15.54, 152.49 0.06 M126.25 30.24 C133.75 20.79, 143.43 11.34, 152.49 0.06 M136.88 30.21 C142.63 22.61, 150.02 17.73, 163.12 0.02 M136.88 30.21 C143.77 21.7, 149.72 15.16, 163.12 0.02 M147.51 30.17 C155.65 20.39, 163.31 11.42, 173.09 0.74 M147.51 30.17 C154.53 21.64, 162.12 13.3, 173.09 0.74 M158.14 30.14 C163.91 22.72, 169.1 17.72, 177.82 7.5 M158.14 30.14 C164.04 23.42, 170.56 17.76, 177.82 7.5 M168.11 30.86 C169.17 28.46, 171.56 24.22, 177.95 19.54 M168.11 30.86 C170.26 28.92, 172.13 25.65, 177.95 19.54" stroke="#b2f2bb" stroke-width="1" fill="none"></path><path d="M7.5 0 C67.21 -0.1, 124.93 -0.09, 170.5 0 M170.5 0 C174.76 -0.86, 177.25 1.87, 178 7.5 M178 7.5 C176.71 10.56, 179.44 13.83, 178 22.5 M178 22.5 C176.19 29.48, 177.12 31.95, 170.5 30 M170.5 30 C136.02 30.53, 102.77 31.33, 7.5 30 M7.5 30 C2.07 29.91, 0.02 27.26, 0 22.5 M0 22.5 C1.27 16.8, -0.66 10, 0 7.5 M0 7.5 C-1.19 4.28, 1.96 0.6, 7.5 0" stroke="#1e1e1e" stroke-width="2.5" fill="none" stroke-dasharray="8 10"></path></g><g transform="translate(69.25833320617676 15) rotate(0 29.741666793823242 10)"><text x="29.741666793823242" y="14.016" font-family="Virgil, Segoe UI Emoji" font-size="16px" fill="#1e1e1e" text-anchor="middle" style="white-space: pre;" direction="ltr" dominant-baseline="alphabetic">catalog</text></g><g stroke-linecap="round" transform="translate(10 51) rotate(0 88.5 15)"><path d="M0.39 4.31 C0.39 4.31, 0.39 4.31, 0.39 4.31 M0.39 4.31 C0.39 4.31, 0.39 4.31, 0.39 4.31 M-0.14 17.11 C2.96 13.49, 9.32 6.13, 14.3 0.5 M-0.14 17.11 C5.87 10.48, 10.76 5.32, 14.3 0.5 M1.97 26.88 C7.91 17.84, 16.04 10.25, 24.93 0.47 M1.97 26.88 C10.85 16.73, 18 6.82, 24.93 0.47 M9.32 30.62 C16.55 23.27, 21.08 16.62, 35.56 0.43 M9.32 30.62 C18.23 18.95, 28.3 8.38, 35.56 0.43 M19.95 30.59 C27.34 21.32, 38.7 9.78, 46.19 0.4 M19.95 30.59 C27.59 22.52, 32.97 14.43, 46.19 0.4 M30.58 30.55 C40.28 18.74, 46.44 11.81, 56.82 0.37 M30.58 30.55 C39.31 19.4, 48.51 9.55, 56.82 0.37 M41.21 30.52 C50.93 20.51, 58.06 9.51, 67.45 0.33 M41.21 30.52 C47.72 23.85, 53.27 16.86, 67.45 0.33 M51.84 30.49 C60.21 24.22, 64.19 12.69, 78.08 0.3 M51.84 30.49 C59.49 22.6, 66.68 13.99, 78.08 0.3 M62.47 30.45 C70.09 21.2, 75.95 13.38, 88.71 0.26 M62.47 30.45 C71.18 19.89, 78.89 10.59, 88.71 0.26 M73.1 30.42 C79.38 22.52, 83.67 15.14, 99.34 0.23 M73.1 30.42 C80.97 22.35, 89.24 12.55, 99.34 0.23 M83.73 30.38 C90.42 22.92, 95.5 15, 109.97 0.19 M83.73 30.38 C93.35 20.22, 101.68 9.45, 109.97 0.19 M94.36 30.35 C102.16 19.46, 110.67 11.33, 120.6 0.16 M94.36 30.35 C100.33 24.42, 105.29 19.16, 120.6 0.16 M104.99 30.31 C110.08 23.57, 119.55 16.1, 131.23 0.12 M104.99 30.31 C111.54 23.19, 118.12 14.59, 131.23 0.12 M115.62 30.28 C123.52 19.3, 136.74 6.09, 141.86 0.09 M115.62 30.28 C124.98 20.37, 134.67 9.51, 141.86 0.09 M126.25 30.24 C132.74 23.77, 139.45 13.81, 152.49 0.06 M126.25 30.24 C135.54 20.37, 144.49 9.84, 152.49 0.06 M136.88 30.21 C145.64 16.22, 158.24 7.35, 163.12 0.02 M136.88 30.21 C146.25 19.81, 152.89 10.49, 163.12 0.02 M147.51 30.17 C153.93 22.22, 158.64 15.28, 173.09 0.74 M147.51 30.17 C154.49 22.97, 161.99 13.54, 173.09 0.74 M158.14 30.14 C166.27 22.92, 168.84 16.89, 176.51 9.01 M158.14 30.14 C162.98 25.88, 166.99 20.67, 176.51 9.01 M168.11 30.86 C172.36 28.14, 174.43 24.36, 177.3 20.29 M168.11 30.86 C169.93 28.6, 172.91 25.98, 177.3 20.29" stroke="#a5d8ff" stroke-width="1" fill="none"></path><path d="M7.5 0 C59.75 0.56, 113.23 1.23, 169.5 0 M169.5 0 C175 0, 178.62 2.68, 177 7.5 M177 7.5 C175.85 11.46, 178.19 14.18, 177 22.5 M177 22.5 C177.74 29.38, 172.6 29.45, 169.5 30 M169.5 30 C120.85 28.57, 77.43 29.56, 7.5 30 M7.5 30 C4.22 28.26, -1.78 28.62, 0 22.5 M0 22.5 C0.88 17.25, 0.49 12.74, 0 7.5 M0 7.5 C-0.18 3.67, 2.63 -0.38, 7.5 0" stroke="#1e1e1e" stroke-width="2.5" fill="none" stroke-dasharray="8 10"></path></g><g transform="translate(74.5666675567627 56) rotate(0 23.933332443237305 10)"><text x="23.933332443237305" y="14.016" font-family="Virgil, Segoe UI Emoji" font-size="16px" fill="#1e1e1e" text-anchor="middle" style="white-space: pre;" direction="ltr" dominant-baseline="alphabetic">profile</text></g><g stroke-linecap="round" transform="translate(10 91) rotate(0 88 15)"><path d="M2 1.74 C2 1.74, 2 1.74, 2 1.74 M2 1.74 C2 1.74, 2 1.74, 2 1.74 M0.82 15.29 C5.58 8.49, 10.93 5.52, 13.28 0.95 M0.82 15.29 C5.24 10.81, 9.04 7.39, 13.28 0.95 M1.61 26.57 C8.96 20.48, 15.03 10.58, 23.91 0.91 M1.61 26.57 C8.18 17.48, 15.67 10.67, 23.91 0.91 M9.61 29.56 C16.51 19.94, 25.33 9.99, 34.54 0.88 M9.61 29.56 C17.58 20.11, 25.65 11.87, 34.54 0.88 M20.24 29.52 C28.03 19.55, 38.61 6.1, 45.17 0.84 M20.24 29.52 C26.25 22.86, 32.56 14.69, 45.17 0.84 M30.87 29.49 C39.68 19.99, 46.09 8.6, 55.8 0.81 M30.87 29.49 C41.14 18.67, 50.39 5.96, 55.8 0.81 M41.5 29.45 C51.3 20.1, 60.84 6.69, 66.43 0.77 M41.5 29.45 C48.96 22.15, 55.04 14.34, 66.43 0.77 M52.13 29.42 C58.73 22.26, 64.62 15.37, 77.06 0.74 M52.13 29.42 C61.63 17.85, 72.71 7.26, 77.06 0.74 M62.76 29.38 C70.57 20.97, 78.79 9.74, 87.69 0.7 M62.76 29.38 C68.35 22.94, 75.5 15.27, 87.69 0.7 M72.74 30.1 C81.47 23.24, 86.54 12.77, 98.32 0.67 M72.74 30.1 C81.67 21.75, 88.69 12.29, 98.32 0.67 M83.37 30.07 C93.72 18.03, 103.99 7.08, 108.95 0.64 M83.37 30.07 C92.74 21.36, 100.83 10.35, 108.95 0.64 M94 30.03 C103.79 21.17, 112.23 10.69, 119.58 0.6 M94 30.03 C102.74 19.97, 112.35 9.12, 119.58 0.6 M104.63 30 C113.38 18.98, 122.15 10.69, 129.56 1.32 M104.63 30 C113.25 19.88, 124.41 8.05, 129.56 1.32 M115.26 29.97 C119.38 24.15, 123.75 18.46, 140.19 1.29 M115.26 29.97 C124.76 20, 132.69 8.84, 140.19 1.29 M125.89 29.93 C133.2 21.76, 144.44 10.31, 150.82 1.25 M125.89 29.93 C132.17 20.81, 140.99 12.63, 150.82 1.25 M136.52 29.9 C144.51 18.56, 154.48 7.25, 161.45 1.22 M136.52 29.9 C144.36 19.97, 153.73 9.88, 161.45 1.22 M147.15 29.86 C151.15 23.12, 157.75 18.85, 172.08 1.18 M147.15 29.86 C152.53 22.58, 158.68 16.55, 172.08 1.18 M157.78 29.83 C164.78 21.31, 171.98 14.82, 176.15 8.7 M157.78 29.83 C162.67 23.91, 167.71 19.34, 176.15 8.7 M168.41 29.79 C170.7 28.74, 171.97 25.11, 175.62 21.49 M168.41 29.79 C170.59 27.14, 173.34 23.19, 175.62 21.49" stroke="#ffec99" stroke-width="1" fill="none"></path><path d="M7.5 0 C53.92 -0.5, 102.3 -2.18, 168.5 0 M168.5 0 C173.55 0.72, 176.34 1.45, 176 7.5 M176 7.5 C174.81 13.88, 175.74 19.89, 176 22.5 M176 22.5 C174.84 27.02, 171.93 31.64, 168.5 30 M168.5 30 C136.91 28.91, 103.4 30.68, 7.5 30 M7.5 30 C1.42 30.65, 0.64 26.24, 0 22.5 M0 22.5 C-0.93 18.22, 0.73 12.71, 0 7.5 M0 7.5 C0.96 3.19, 1.15 1.36, 7.5 0" stroke="#1e1e1e" stroke-width="2.5" fill="none" stroke-dasharray="8 10"></path></g><g transform="translate(20.133331298828125 96) rotate(0 77.86666870117188 10)"><text x="77.86666870117188" y="14.016" font-family="Virgil, Segoe UI Emoji" font-size="16px" fill="#1e1e1e" text-anchor="middle" style="white-space: pre;" direction="ltr" dominant-baseline="alphabetic">Component definition</text></g></svg>